Michael Paul Schramm: Binomial Test for Water Quality Compliance
…
Under this scenario, we accept reject the null hypothesis. The water body is listed as impaired for depressed dissolved oxygen according to water quality standards.

We can simplify this test by creating a table or graph depicting the number of exceedances required for a listing based on the number of samples collected. In fact, this table is provided in the TCEQ assessment guide. Using qbinom we can create a table listing the number of exceedances leading to an impairment listing:

The maximum Type 1 error rate specified in the State of Texasâ€™s assessment guidance is currently 20% for impairment listings.

binom_chart <- tibble(n = 10:100,
                       exceedances = qbinom(1-0.20, size = 10:100, prob = 0.1) + 1)
binom_chart

# A tibble: 91 x 2
       n exceedances
   <int>       <dbl>
 1    10           3
 2    11           3
 3    12           3
 4    13           3
 5    14           3
 6    15           3
 7    16           4
 8    17           4
 9    18           4
10    19           4
# ... with 81 more rows
…
  return(results$estimate)
}
df2 <- df %>%
  ungroup() %>%
  arrange(`End Date`) %>%
  mutate(Success = as.integer(case_when(
    Value < 4 ~ 1,
    Value >= 4 ~ 0
    )))
df2 <- df2 %>%
  mutate(ep = map_dbl(seq_along(.$`End Date`),
                  ~myfunc(dates = `End Date`, values = Success, years = 7, i = .x)))
df2

# A tibble: 142 x 5
   `End Date` `Station ID` Value Success    ep
   <date>            <dbl> <dbl>   <int> <dbl>
 1 2000-01-03        12515  6.19       0     0
 2 2000-03-14        12515  6.7        0     0
 3 2000-03-16        12515  6.41       0     0
 4 2000-05-03        12515  4.42       0     0
 5 2000-06-15        12515  4.86       0     0
 6 2000-07-11        12515  4.48       0     0
 7 2000-09-12        12515  5.64       0     0
 8 2000-10-18        12515  8.82       0     0
 9 2000-11-06        12515  5.96       0     0
10 2000-12-20        12515 12.5        0     0
# ... with 132 more rows
…
