@mpschramm: Introducing echor
…
I found 47 permits, some are terminated some active. By default, the facility search function return a data_frame with variables I deemed useful. However, ECHO provides a a whole host of possible variables (in my state, these are often unfortunately left blank). echoWaterGetParams() will return a dataframe with these variable names, description and ColumnID number. Use the qcolumn argument in the search function to specify what variables you would like returned. According to echoWaterGetParams() there are 299 possible return variables. Certain variables are always returned regardless of the qcolumns argument specified. If I want to find all the POTW (public wastewater treatment plants), I need to specify qcolumn 27, which I cfound using the echoWaterGetMeta() function.

Rows: 232
Columns: 6
$ ColumnName  <chr> "CWP_NAME", "SOURCE_ID", "CWP_STREET", "CWP_C...
$ DataType    <chr> "VARCHAR2", "VARCHAR2", "VARCHAR2", "VARCHAR2...
$ DataLength  <chr> "200", "30", "200", "100", "2", "5", "10", "9...
$ ColumnID    <chr> "1", "2", "3", "4", "5", "6", "7", "8", "9", ...
$ ObjectName  <chr> "CWPName", "SourceID", "CWPStreet", "CWPCity"...
$ Description <chr> "Facility or permit holder name, as maintaine...

# A tibble: 96 x 6
   CWPName     SourceID  FacDerivedHuc FacLat FacLong CWPFacilityType~
   <chr>       <chr>     <chr>          <dbl>   <dbl> <chr>           
 1 3280 FARM   TXG130056 12100401        28.7   -96.3 NON-POTW        
 2 AES DRILLI~ TXR05CX83 12100401        29.2   -96.3 NON-POTW        
 3 ALAMO CONC~ TXG110081 12100401        28.7   -96.2 NON-POTW        
 4 ALCOA POIN~ TX0004715 12100401        28.7   -96.6 NON-POTW        
 5 APEKS AQUA~ TXG130042 12100401        28.7   -96.4 NON-POTW        
 6 BLESSING    TXG130053 12100401        28.9   -96.3 NON-POTW        
 7 BLESSING T~ TXR15693Q 12100401        28.7   -96.5 NON-POTW        
 8 BOCA CHICA~ TX0098248 12100401        28.7   -96.4 NON-POTW        
 9 BON L. CAM~ TX0030597 12100401        29.1   -96.2 NON-POTW        
10 BOWERS SHR~ TX0112691 12100401        28.7   -96.2 NON-POTW        
# ... with 86 more rows
…
