Downloading EPA ECHO data with echor
…
---

- Hey! I don't know what parameter code to use!

-

```r
params <- echoWaterGetParams(term = "Oxygen")
params
```

```
## # A tibble: 36 x 2
##    ValueCode ValueDescription                     
##    <chr>     <chr>                                
##  1 03602     Biochemical oxygen demand            
##  2 85002     Biochemical oxygen demand-5          
##  3 81383     Carbonaceous oxygen demand, % removal
##  4 80115     Chem. oxygen demand [COD] % removal  
##  5 00146     Chem. oxygen demand per production   
##  6 81017     Chemical Oxygen Demand [COD]         
##  7 80108     Chemical oxygen demand [COD]         
##  8 80103     Chemical oxygen demand [COD]         
##  9 80116     Chemical oxygen demand, soluble      
## 10 00398     Dissolved oxygen injected            
## # ... with 26 more rows
```
…
- Sometimes you need to try a few search terms

- escherichia coli returns nothing

- escherichia returns nothing

- try coli

```r
params <- echoWaterGetParams(term = "coli")
params
```

```
## # A tibble: 28 x 2
##    ValueCode ValueDescription                           
##    <chr>     <chr>                                      
##  1 51005     % of fecal coliform samples < detectable   
##  2 30500     Coliform, fecal - % samples exceeding limit
##  3 31612     Coliform, fecal 10/mL                      
##  4 31613     Coliform, fecal MF, MFC agar, 44.5 C, 24hr 
##  5 31616     Coliform, fecal MF, MFC broth, 44.5 C      
##  6 31625     Coliform, fecal MF, MFC, 0.7um             
##  7 48201     Coliform, fecal MPN + membrane ftl 44.5 C  
##  8 74055     Coliform, fecal general                    
##  9 74057     Coliform, fecal, colony forming units      
## 10 31505     Coliform, tot, MPN, completed, [100 mL]    
## # ... with 18 more rows
```
…
