Michael Paul Schramm: txwater retweets
…
library(tidyverse)
token <- readRDS(Sys.getenv("TWITTER_PAT")) ## see https://docs.ropensci.org/rtweet/articles/auth.html
txwater <- search_tweets("#txwater", 
                         n = 1000, 
                         token = token)
output <- filter(txwater, 
                 retweet_count > 0) %>% 
  select(text, 
         mentions_screen_name, 
         retweet_count) %>% 
  mutate(text = substr(text, 1, 30)) %>% 
  unnest()
as_tibble(output)

# A tibble: 400 x 3
   text                     mentions_screen_n~ retweet_count
   <chr>                    <chr>                      <int>
 1 Opinion in @HoustonChro~ WaterWired                     1
 2 Opinion in @HoustonChro~ HoustonChron                   1
 3 Opinion in @HoustonChro~ HoustonChron                   1
 4 Opinion in @HoustonChro~ FloodsOrg                      1
 5 Opinion in @HoustonChro~ FloodDroughtMgt                1
 6 Opinion in @HoustonChro~ IowaFloodCenter                1
 7 Opinion in @HoustonChro~ USACEHQ                        1
 8 On the 'The Stream' wit~ WillSarni                      4
 9 On the 'The Stream' wit~ RichaelYoung                   4
10 The Texas Water Daily -~ TXWEI                          1
# ... with 390 more rows
…
