…
## Observations: 299
## Variables: 6
## $ ColumnName  <chr> "CWP_NAME", "SOURCE_ID", "CWP_STREET", "CWP_CITY",...
## $ DataType    <chr> "VARCHAR2", "VARCHAR2", "VARCHAR2", "VARCHAR2", "C...
## $ DataLength  <chr> "200", "30", "200", "100", "2", "40", "10", "9", "...
## $ ColumnID    <chr> "1", "2", "3", "4", "5", "6", "7", "8", "9", "10",...
## $ ObjectName  <chr> "CWPName", "SourceID", "CWPStreet", "CWPCity", "CW...
## $ Description <chr> "Facility or permit holder name, as maintained in ...

df <- echoWaterGetFacilityInfo(p_huc = "12100401", qcolumns = "1,2,14,23,24,27")
df

## # A tibble: 47 x 6
##    CWPName         SourceID FacDerivedHuc FacLat FacLong CWPFacilityTypeI~
##    <chr>           <chr>    <chr>          <dbl>   <dbl> <chr>            
##  1 3280 FARM       TXG1300~ 12100401        28.7   -96.3 NON-POTW         
##  2 ALAMO CONCRETE~ TXG1100~ 12100401        28.7   -96.2 NON-POTW         
##  3 ALCOA POINT CO~ TX00047~ 12100401        28.7   -96.6 NON-POTW         
##  4 APEKS AQUACULT~ TXG1300~ 12100401        28.7   -96.4 NON-POTW         
##  5 BLESSING        TXG1300~ 12100401        28.9   -96.2 NON-POTW         
##  6 BOCA CHICA SEC~ TX00982~ 12100401        28.7   -96.4 NON-POTW         
##  7 BON L. CAMPO, ~ TX00305~ 12100401        29.1   -96.2 NON-POTW         
##  8 BOWERS SHRIMP ~ TX01126~ 12100401        28.7   -96.2 NON-POTW         
##  9 CITY OF EL CAM~ TX00214~ 12100401        29.2   -96.3 POTW             
## 10 CITY OF PALACI~ TX00230~ 12100401        28.7   -96.2 POTW             
## # ... with 37 more rows
…
