…
Let’s find out the retweet relationships for #txwater twitter users. I’m going to use the R recipes by Bob Rudis in 21 Recipes for Mining Twitter Data with rtweet.

Extract the origin

library(rtweet)
library(tidyverse)

txwater <- search_tweets("#txwater", n=1000)
output <- filter(txwater, retweet_count > 0) %>% 
  select(text, mentions_screen_name, retweet_count) %>% 
  mutate(text = substr(text, 1, 30)) %>% 
  unnest()
as_tibble(output)

## # A tibble: 290 x 3
##    text                           retweet_count mentions_screen_name
##    <chr>                                  <int> <chr>               
##  1 RT @jeremybmazur: Corpus Chris             1 jeremybmazur        
##  2 RT @twdb_kathleen: Mtg w/ City             1 twdb_kathleen       
##  3 Mtg w/ City of Mason Mayor Bre             1 twdb                
##  4 Corpus Christi, recognizing th             1 <NA>                
##  5 Enjoyed mtg w/ @CityofLlano Ma             1 CityofLlano         
##  6 Enjoyed mtg w/ @CityofLlano Ma             1 twdb                
##  7 Dr. Fouad Jaber from @AgriLife             3 AgriLifeDallas      
##  8 Dr. Fouad Jaber from @AgriLife             3 TxWRI               
##  9 Dr. Fouad Jaber from @AgriLife             3 UTRWD               
## 10 Dr. Fouad Jaber from @AgriLife             3 NTMWD               
## # ... with 280 more rows
…
